<svg xmlns="http://www.w3.org/2000/svg" xmlns:se="http://svg-edit.googlecode.com" xmlns:xlink="http://www.w3.org/1999/xlink" xmlns:dc="http://purl.org/dc/elements/1.1/" xmlns:cc="http://creativecommons.org/ns#" xmlns:rdf="http://www.w3.org/1999/02/22-rdf-syntax-ns#" xmlns:inkscape="http://www.inkscape.org/namespaces/inkscape" width="172" height="172" style="">
                                    <title>my vector image</title>
                                    <!-- Created with Vector Paint - http://www.vectorpaint.yaks.com/ https://chrome.google.com/webstore/detail/hnbpdiengicdefcjecjbnjnoifekhgdo -->
                                    <rect id="backgroundrect" width="100%" height="100%" x="0" y="0" fill="#FFFFFF" stroke="none" class="" style="" opacity="0"/>
                                <g style="" class="currentLayer"><title>Layer 1</title><path fill="#000000" fill-opacity="1" stroke="none" stroke-opacity="1" stroke-width="1" stroke-dasharray="none" stroke-linejoin="miter" stroke-linecap="butt" stroke-dashoffset="" fill-rule="nonzero" opacity="1" marker-start="" marker-mid="" marker-end="" d="M5.8448808789253235,63.64225399494171 C5.8448808789253235,55.90744736510746 12.333831155168411,49.64225399494171 20.344880878925323,49.64225399494171 C28.355930602682236,49.64225399494171 34.84488087892532,55.90744736510746 34.84488087892532,63.64225399494171 C34.84488087892532,71.37706062477596 28.355930602682236,77.64225399494171 20.344880878925323,77.64225399494171 C12.333831155168411,77.64225399494171 5.8448808789253235,71.37706062477596 5.8448808789253235,63.64225399494171 z" id="svg_1" class=""/><path fill="#000000" fill-opacity="1" stroke="none" stroke-opacity="1" stroke-width="1" stroke-dasharray="none" stroke-linejoin="miter" stroke-linecap="butt" stroke-dashoffset="" fill-rule="nonzero" opacity="1" marker-start="" marker-mid="" marker-end="" d="M52.92040514945984,61.156071186065674 C52.92040514945984,53.42126455623142 59.40935542570287,47.156071186065674 67.42040514945984,47.156071186065674 C75.43145487321681,47.156071186065674 81.92040514945984,53.42126455623142 81.92040514945984,61.156071186065674 C81.92040514945984,68.89087781589993 75.43145487321681,75.15607118606567 67.42040514945984,75.15607118606567 C59.40935542570287,75.15607118606567 52.92040514945984,68.89087781589993 52.92040514945984,61.156071186065674 z" class="" id="svg_10"/><path fill="#000000" fill-opacity="1" stroke="none" stroke-opacity="1" stroke-width="1" stroke-dasharray="none" stroke-linejoin="miter" stroke-linecap="butt" stroke-dashoffset="" fill-rule="nonzero" opacity="1" marker-start="" marker-mid="" marker-end="" d="M94.27529233694077,63.1760156750679 C94.27529233694077,55.44120904523368 100.76424261318385,49.1760156750679 108.77529233694077,49.1760156750679 C116.78634206069768,49.1760156750679 123.27529233694077,55.44120904523368 123.27529233694077,63.1760156750679 C123.27529233694077,70.91082230490213 116.78634206069768,77.1760156750679 108.77529233694077,77.1760156750679 C100.76424261318385,77.1760156750679 94.27529233694077,70.91082230490213 94.27529233694077,63.1760156750679 z" class="" id="svg_5"/><path fill="#000000" fill-opacity="1" stroke="none" stroke-opacity="1" stroke-width="1" stroke-dasharray="none" stroke-linejoin="miter" stroke-linecap="butt" stroke-dashoffset="" fill-rule="nonzero" opacity="1" marker-start="" marker-mid="" marker-end="" d="M137.88260924816132,20.319512009620667 C137.88260924816132,12.584705379786442 144.3715595244044,6.3195120096206665 152.38260924816132,6.3195120096206665 C160.39365897191823,6.3195120096206665 166.88260924816132,12.584705379786442 166.88260924816132,20.319512009620667 C166.88260924816132,28.05431863945489 160.39365897191823,34.319512009620674 152.38260924816132,34.319512009620674 C144.3715595244044,34.319512009620674 137.88260924816132,28.05431863945489 137.88260924816132,20.319512009620667 z" class="" id="svg_20"/><path fill="#000000" fill-opacity="1" stroke="none" stroke-opacity="1" stroke-width="1" stroke-dasharray="none" stroke-linejoin="miter" stroke-linecap="butt" stroke-dashoffset="" fill-rule="nonzero" opacity="1" marker-start="" marker-mid="" marker-end="" d="M50.377055525779724,109.82278376817703 C50.377055525779724,102.08797713834281 56.86600580202281,95.82278376817703 64.87705552577972,95.82278376817703 C72.88810524953664,95.82278376817703 79.37705552577972,102.08797713834281 79.37705552577972,109.82278376817703 C79.37705552577972,117.55759039801126 72.88810524953664,123.82278376817703 64.87705552577972,123.82278376817703 C56.86600580202281,123.82278376817703 50.377055525779724,117.55759039801126 50.377055525779724,109.82278376817703 z" class="" id="svg_19"/><path fill="#ffffff" fill-opacity="1" stroke="#000000" stroke-opacity="1" stroke-width="1" stroke-dasharray="none" stroke-linejoin="miter" stroke-linecap="butt" stroke-dashoffset="" fill-rule="nonzero" opacity="1" marker-start="" marker-mid="" marker-end="" d="M51.17925280332565,21.272314369678497 C51.17925280332565,13.537507739844244 57.22068926741406,7.272314369678497 64.67925280332565,7.272314369678497 C72.13781633923725,7.272314369678497 78.17925280332565,13.537507739844244 78.17925280332565,21.272314369678497 C78.17925280332565,29.00712099951275 72.13781633923725,35.2723143696785 64.67925280332565,35.2723143696785 C57.22068926741406,35.2723143696785 51.17925280332565,29.00712099951275 51.17925280332565,21.272314369678497 z" id="svg_6" class=""/><path fill="#ffffff" fill-opacity="1" stroke="#000000" stroke-opacity="1" stroke-width="1" stroke-dasharray="none" stroke-linejoin="miter" stroke-linecap="butt" stroke-dashoffset="" fill-rule="nonzero" opacity="1" marker-start="" marker-mid="" marker-end="" d="M96.26341515779495,20.46306550502777 C96.26341515779495,12.728258875193518 102.30485162188336,6.463065505027771 109.76341515779495,6.463065505027771 C117.22197869370655,6.463065505027771 123.26341515779495,12.728258875193518 123.26341515779495,20.46306550502777 C123.26341515779495,28.197872134862024 117.22197869370655,34.46306550502777 109.76341515779495,34.46306550502777 C102.30485162188336,34.46306550502777 96.26341515779495,28.197872134862024 96.26341515779495,20.46306550502777 z" class="" id="svg_9"/><path fill="#ffffff" fill-opacity="1" stroke="#000000" stroke-opacity="1" stroke-width="1" stroke-dasharray="none" stroke-linejoin="miter" stroke-linecap="butt" stroke-dashoffset="" fill-rule="nonzero" opacity="1" marker-start="" marker-mid="" marker-end="" d="M139.75639444589615,64.99777668714523 C139.75639444589615,57.26297005731098 145.79783090998455,50.99777668714523 153.25639444589615,50.99777668714523 C160.71495798180774,50.99777668714523 166.75639444589615,57.26297005731098 166.75639444589615,64.99777668714523 C166.75639444589615,72.73258331697949 160.71495798180774,78.99777668714523 153.25639444589615,78.99777668714523 C145.79783090998455,78.99777668714523 139.75639444589615,72.73258331697949 139.75639444589615,64.99777668714523 z" class="" id="svg_11"/><path fill="#ffffff" fill-opacity="1" stroke="#000000" stroke-opacity="1" stroke-width="1" stroke-dasharray="none" stroke-linejoin="miter" stroke-linecap="butt" stroke-dashoffset="" fill-rule="nonzero" opacity="1" marker-start="" marker-mid="" marker-end="" d="M95.30869644880295,153.37737488746643 C95.30869644880295,145.64256825763218 101.35013291289135,139.37737488746643 108.80869644880295,139.37737488746643 C116.26725998471454,139.37737488746643 122.30869644880295,145.64256825763218 122.30869644880295,153.37737488746643 C122.30869644880295,161.11218151730068 116.26725998471454,167.37737488746643 108.80869644880295,167.37737488746643 C101.35013291289135,167.37737488746643 95.30869644880295,161.11218151730068 95.30869644880295,153.37737488746643 z" class="" id="svg_12"/><path fill="#ffffff" fill-opacity="1" stroke="#000000" stroke-opacity="1" stroke-width="1" stroke-dasharray="none" stroke-linejoin="miter" stroke-linecap="butt" stroke-dashoffset="" fill-rule="nonzero" opacity="1" marker-start="" marker-mid="" marker-end="" d="M139.2367896437645,107.01772737503052 C139.2367896437645,99.28292074519626 145.2782261078529,93.01772737503052 152.7367896437645,93.01772737503052 C160.1953531796761,93.01772737503052 166.2367896437645,99.28292074519626 166.2367896437645,107.01772737503052 C166.2367896437645,114.75253400486477 160.1953531796761,121.01772737503052 152.7367896437645,121.01772737503052 C145.2782261078529,121.01772737503052 139.2367896437645,114.75253400486477 139.2367896437645,107.01772737503052 z" class="" id="svg_13"/><path fill="#ffffff" fill-opacity="1" stroke="#000000" stroke-opacity="1" stroke-width="1" stroke-dasharray="none" stroke-linejoin="miter" stroke-linecap="butt" stroke-dashoffset="" fill-rule="nonzero" opacity="1" marker-start="" marker-mid="" marker-end="" d="M7.197791159152985,108.37770009040833 C7.197791159152985,100.64289346057407 13.23922762324139,94.37770009040833 20.697791159152985,94.37770009040833 C28.15635469506458,94.37770009040833 34.197791159152985,100.64289346057407 34.197791159152985,108.37770009040833 C34.197791159152985,116.11250672024258 28.15635469506458,122.37770009040833 20.697791159152985,122.37770009040833 C13.23922762324139,122.37770009040833 7.197791159152985,116.11250672024258 7.197791159152985,108.37770009040833 z" class="" id="svg_14"/><path fill="#ffffff" fill-opacity="1" stroke="#000000" stroke-opacity="1" stroke-width="1" stroke-dasharray="none" stroke-linejoin="miter" stroke-linecap="butt" stroke-dashoffset="" fill-rule="nonzero" opacity="1" marker-start="" marker-mid="" marker-end="" d="M6.617198169231415,20.54883188009262 C6.617198169231415,12.814025250258368 12.65863463331982,6.548831880092621 20.117198169231415,6.548831880092621 C27.57576170514301,6.548831880092621 33.617198169231415,12.814025250258368 33.617198169231415,20.54883188009262 C33.617198169231415,28.283638509926874 27.57576170514301,34.54883188009262 20.117198169231415,34.54883188009262 C12.65863463331982,34.54883188009262 6.617198169231415,28.283638509926874 6.617198169231415,20.54883188009262 z" class="" id="svg_15"/><path fill="#ffffff" fill-opacity="1" stroke="#000000" stroke-opacity="1" stroke-width="1" stroke-dasharray="none" stroke-linejoin="miter" stroke-linecap="butt" stroke-dashoffset="" fill-rule="nonzero" opacity="1" marker-start="" marker-mid="" marker-end="" d="M6.8782671093940735,152.01741433143616 C6.8782671093940735,144.28260770160193 12.91970357348248,138.01741433143616 20.378267109394073,138.01741433143616 C27.836830645305668,138.01741433143616 33.87826710939407,144.28260770160193 33.87826710939407,152.01741433143616 C33.87826710939407,159.75222096127038 27.836830645305668,166.01741433143616 20.378267109394073,166.01741433143616 C12.91970357348248,166.01741433143616 6.8782671093940735,159.75222096127038 6.8782671093940735,152.01741433143616 z" class="" id="svg_21"/><path fill="#ffffff" fill-opacity="1" stroke="#000000" stroke-opacity="1" stroke-width="1" stroke-dasharray="none" stroke-linejoin="miter" stroke-linecap="butt" stroke-dashoffset="" fill-rule="nonzero" opacity="1" marker-start="" marker-mid="" marker-end="" d="M51.18050581216812,151.90307462215424 C51.18050581216812,144.16826799232 57.22194227625653,137.90307462215424 64.68050581216812,137.90307462215424 C72.13906934807972,137.90307462215424 78.18050581216812,144.16826799232 78.18050581216812,151.90307462215424 C78.18050581216812,159.63788125198846 72.13906934807972,165.90307462215424 64.68050581216812,165.90307462215424 C57.22194227625653,165.90307462215424 51.18050581216812,159.63788125198846 51.18050581216812,151.90307462215424 z" class="" id="svg_16"/><path fill="#ffffff" fill-opacity="1" stroke="#000000" stroke-opacity="1" stroke-width="1" stroke-dasharray="none" stroke-linejoin="miter" stroke-linecap="butt" stroke-dashoffset="" fill-rule="nonzero" opacity="1" marker-start="" marker-mid="" marker-end="" d="M93.60315608978271,108.78295862674713 C93.60315608978271,101.04815199691288 99.64459255387112,94.78295862674713 107.10315608978271,94.78295862674713 C114.56171962569431,94.78295862674713 120.60315608978271,101.04815199691288 120.60315608978271,108.78295862674713 C120.60315608978271,116.51776525658138 114.56171962569431,122.78295862674713 107.10315608978271,122.78295862674713 C99.64459255387112,122.78295862674713 93.60315608978271,116.51776525658138 93.60315608978271,108.78295862674713 z" class="" id="svg_17"/><path fill="#ffffff" fill-opacity="1" stroke="#000000" stroke-opacity="1" stroke-width="1" stroke-dasharray="none" stroke-linejoin="miter" stroke-linecap="butt" stroke-dashoffset="" fill-rule="nonzero" opacity="1" marker-start="" marker-mid="" marker-end="" d="M139.2081736922264,152.56814229488373 C139.2081736922264,144.8333356650495 145.24961015631482,138.56814229488373 152.7081736922264,138.56814229488373 C160.166737228138,138.56814229488373 166.2081736922264,144.8333356650495 166.2081736922264,152.56814229488373 C166.2081736922264,160.30294892471795 160.166737228138,166.56814229488373 152.7081736922264,166.56814229488373 C145.24961015631482,166.56814229488373 139.2081736922264,160.30294892471795 139.2081736922264,152.56814229488373 z" class="" id="svg_18"/><path fill="#ffffff" stroke="#000000" stroke-dashoffset="" fill-rule="nonzero" marker-start="" marker-mid="" marker-end="" id="svg_4" d="M65.67660179244545,79.22443936664001 C64.96044873435952,78.27027108292306 66.40600147489093,76.6556124290554 67.05582976786775,77.75549686831744 C67.61049564444082,78.70880390859729 66.3775781624555,79.92085124512059 65.67660179244545,79.22443936664001 zM67.59423700985485,81.39600675766309 C67.00901669725451,80.34548356106329 68.61033363324461,79.22308617769885 69.116888992056,80.27247166562022 C69.71816576853885,81.36980286705969 68.09334260042576,82.6230313276185 67.59423700985485,81.39600675766309 zM69.77733013611211,84.02342196535346 C69.04620422689516,83.41961239066518 69.77279351440262,82.02681912619303 70.52984670545334,82.15103739874148 C71.58143761715777,82.3468540704248 71.300388125961,84.48483635545502 70.27474671265051,84.38002350348293 C70.07564967082357,84.35185250847383 69.89826931714998,84.21391668113182 69.77733013611211,84.02342196535346 zM71.60340979575918,86.34331905711278 C70.99198504973083,85.39490233460462 72.40190409302883,84.14927056969711 72.9946091649525,85.05235444626804 C73.6392848820725,86.05693088146532 72.20052374416804,87.38292390949432 71.60340979575918,86.34331905711278 zM68.05743230701086,86.3953256926766 C67.37771885190011,85.61033855190378 68.37542682794015,84.34197971785264 69.12605276795944,84.67305633148513 C70.21671705591879,85.09897949616814 69.40584313557409,87.14678871243508 68.43248673179454,86.68156005065237 C68.29859085251618,86.60418095304377 68.17868585238304,86.49773912449878 68.05743230701086,86.3953256926766 zM65.16630294314464,86.3953256926766 C64.36741485733597,85.4850754033663 65.82709621968957,83.9897758743806 66.51081754236336,84.9419756984711 C67.20451021292448,85.93449540315962 65.9027352779018,87.34275852417896 65.16630294314464,86.3953256926766 zM62.31050235421573,86.34331905711278 C61.698700482067736,85.39517947745664 63.1093898846109,84.14883960917273 63.70150288518979,85.05272374420133 C64.34434851311605,86.05889866348161 62.909598575259345,87.38246381170191 62.31050235421573,86.34331905711278 zM59.5905515910849,86.3953256926766 C58.79166406069,85.4850754033663 60.251345978457074,83.9897758743806 60.93506785654474,84.9419756984711 C61.62875886086479,85.93449540315962 60.326984481255636,87.34275852417896 59.5905515910849,86.3953256926766 zM56.7349909410118,86.3441193155713 C56.033976247434815,85.22504290316209 57.92989366586305,84.00376921680319 58.245984782948376,85.40763464316697 C58.47968134110445,86.34713197357355 57.21405608293937,87.16524141210479 56.7349909410118,86.3441193155713 zM69.66154630800199,88.83163023629339 C68.98035822867007,87.96935683060175 70.19193725944953,86.46298513972508 70.91887979027356,87.24781846282698 C71.8166087995354,88.02966690997174 70.627101921881,89.84118846673026 69.80290473004288,89.00514944413378 C69.75642046452947,88.94656185163824 69.70878815823815,88.88932609286134 69.66154630800199,88.83163023629339 zM67.59423700985485,90.9698584940754 C67.02000834069574,89.97057284468123 68.51254966267007,88.87379457372492 69.05169949320165,89.81089451681316 C69.75498360846152,90.8063347244247 68.34244245557844,92.16259256510207 67.69198265686182,91.16813557088807 L67.59423700985485,90.9698584940754 zM65.74508045312194,93.62913564327388 C65.12468299361149,92.93672302424704 65.97686194374015,91.84618622716845 66.65221428797122,92.03166797760642 C67.68017288857027,92.35520820295636 67.03238574211483,94.36651316552827 66.08951934633632,93.98481495298634 C65.94342324271071,93.92357993475471 65.82487789609644,93.78752244479062 65.74508045312194,93.62913564327388 z" style="color: rgb(0, 0, 0);" class="" transform="rotate(87.51034545898438 64.86898803710938,85.70938110351564) "/><path fill="#ffffff" stroke="#000000" stroke-dashoffset="" fill-rule="nonzero" marker-start="" marker-mid="" marker-end="" d="M88.60815612367367,81.23963819925063 C87.63422964568599,80.17602979179418 89.60009723982012,78.37617483042825 90.4838258974442,79.60221258162295 C91.23813920733159,80.6648609637084 89.56144318918052,82.01592634636768 88.60815612367367,81.23963819925063 zM91.21602841056762,83.66027759155261 C90.42016284598981,82.48926266347414 92.59786068027557,81.23812980376184 93.28674648609973,82.40787653152779 C94.1044479070514,83.63106819649153 91.89478296517063,85.02803804956775 91.21602841056762,83.66027759155261 zM94.18490800351037,86.58904912218065 C93.19061931942326,85.91598447404604 94.17873846202258,84.36344216969425 95.20828674040314,84.50190789036103 C96.6383891764068,84.72018412305155 96.25617822581324,87.10338630253801 94.86136559733188,86.98655174361437 C94.59060520814563,86.9551496234125 94.34937825090935,86.80139298723623 94.18490800351037,86.58904912218065 zM96.66827006049624,89.17503116888736 C95.83676799158735,88.11783400875706 97.75417583141007,86.72933216861051 98.56022023304519,87.73599694687948 C99.4369416873904,88.85579516344379 97.48031027754911,90.33387545274698 96.66827006049624,89.17503116888736 zM91.84594705615064,89.23300280321345 C90.92157631737848,88.35798008770382 92.27840109693318,86.94414445452463 93.29920868798513,87.31319452229673 C94.7824486415758,87.78796974446468 93.6797073037896,90.07065628567278 92.35599924521694,89.55206734857853 C92.17390864230708,89.46581311001037 92.01084482074788,89.3471627359857 91.84594705615064,89.23300280321345 zM87.91417938865976,89.23300280321345 C86.82773808825186,88.21834964703362 88.81281978576061,86.5515439295983 89.74264099115561,87.61295810125361 C90.68602264933236,88.71931671795446 88.91568450264089,90.2891032231108 87.91417938865976,89.23300280321345 zM84.03045679890442,89.17503116888736 C83.19844186042201,88.1181429390291 85.11689734398226,86.72885177825921 85.92213656304784,87.73640860213297 C86.79636920260305,88.85798864391498 84.84519279136981,90.33336258317397 84.03045679890442,89.17503116888736 zM80.33148206560372,89.23300280321345 C79.24504152052623,88.21834964703362 81.23012397336498,86.5515439295983 82.1599459340905,87.61295810125361 C83.10332532627638,88.71931671795446 81.33298793491497,90.2891032231108 80.33148206560372,89.23300280321345 zM76.44808577872755,89.17592321449311 C75.49474659540016,87.92849223073833 78.07308393968299,86.56714226471703 78.50294946201825,88.13202667336805 C78.82076317967676,89.1792814149643 77.09958648955495,90.09122545239515 76.44808577872755,89.17592321449311 zM94.02744873604513,91.94874387314391 C93.10107259415713,90.98757039937564 94.74874956059296,89.3084225776418 95.73734909354357,90.1832738330738 C96.95820829718161,91.05479785659355 95.34054817436879,93.07409528131129 94.21968796278264,92.14216519248947 C94.1564720671272,92.07685778601382 94.09169490283114,92.01305726436462 94.02744873604513,91.94874387314391 zM91.21602841056762,94.332220237689 C90.43511084134241,93.21831964354442 92.46488017144435,91.99574432846435 93.1980925617687,93.0403267099002 C94.15451802650159,94.14994080209306 92.23354427025328,95.66175718358488 91.34895680157746,94.55323907629713 L91.21602841056762,94.332220237689 zM88.7012831166495,97.29650817506024 C87.85757867962809,96.5246779899727 89.01649245391582,95.30906002634151 89.93493233571377,95.51581595457998 C91.33289620404435,95.87646523385808 90.45194338689203,98.11846059741913 89.169699964644,97.6929827913562 C88.97101776669024,97.62472430767639 88.80980299478318,97.47306144831208 88.7012831166495,97.29650817506024 z" style="color: rgb(0, 0, 0);" class="" id="svg_28" transform="rotate(-42.24083709716797 87.50984191894531,88.46837615966797) "/><path fill="#ffffff" stroke="#000000" stroke-dashoffset="" fill-rule="nonzero" marker-start="" marker-mid="" marker-end="" d="M132.23453132203792,37.503371109406885 C131.26060484405025,36.43976270195043 133.22647243818437,34.639907740584505 134.11020109580846,35.8659454917792 C134.86451440569584,36.928593873864656 133.18781838754478,38.27965925652393 132.23453132203792,37.503371109406885 zM134.84240360893187,39.924010501708864 C134.04653804435407,38.752995573630386 136.22423587863983,37.50186271391809 136.913121684464,38.67160944168404 C137.73082310541565,39.894801106647776 135.5211581635349,41.291770959724005 134.84240360893187,39.924010501708864 zM137.81128320187463,42.852782032336904 C136.81699451778752,42.17971738420229 137.80511366038684,40.6271750798505 138.8346619387674,40.765640800517275 C140.26476437477106,40.9839170332078 139.8825534241775,43.36711921269426 138.48774079569614,43.25028465377062 C138.2169804065099,43.218882533568745 137.9757534492736,43.06512589739248 137.81128320187463,42.852782032336904 zM140.2946452588605,45.43876407904361 C139.4631431899516,44.38156691891331 141.38055102977432,42.99306507876676 142.18659543140944,43.99972985703573 C143.06331688575466,45.11952807360004 141.10668547591337,46.59760836290323 140.2946452588605,45.43876407904361 zM135.4723222545149,45.4967357133697 C134.54795151574274,44.62171299786007 135.90477629529744,43.20787736468088 136.9255838863494,43.576927432452976 C138.40882383994006,44.051702654620925 137.30608250215386,46.33438919582903 135.9823744435812,45.81580025873478 C135.80028384067134,45.72954602016662 135.63722001911214,45.610895646141955 135.4723222545149,45.4967357133697 zM131.54055458702402,45.4967357133697 C130.45411328661612,44.48208255718987 132.43919498412487,42.815276839754546 133.36901618951987,43.87669101140986 C134.31239784769662,44.983049628110706 132.54205970100514,46.55283613326705 131.54055458702402,45.4967357133697 zM127.65683199726868,45.43876407904361 C126.82481705878627,44.38187584918535 128.74327254234652,42.99258468841546 129.5485117614121,44.00014151228922 C130.4227444009673,45.12172155407123 128.47156798973407,46.597095493330215 127.65683199726868,45.43876407904361 zM123.95785726396798,45.4967357133697 C122.87141671889049,44.48208255718987 124.85649917172924,42.815276839754546 125.78632113245476,43.87669101140986 C126.72970052464063,44.983049628110706 124.95936313327923,46.55283613326705 123.95785726396798,45.4967357133697 zM120.0744609770918,45.43965612464936 C119.12112179376442,44.19222514089458 121.69945913804725,42.830875174873285 122.12932466038251,44.395759583524296 C122.44713837804102,45.443014325120544 120.72596168791921,46.3549583625514 120.0744609770918,45.43965612464936 zM137.6538239344094,48.21247678330016 C136.7274477925214,47.25130330953189 138.3751247589572,45.57215548779806 139.36372429190783,46.44700674323005 C140.58458349554587,47.3185307667498 138.96692337273305,49.33782819146754 137.8460631611469,48.40589810264572 C137.78284726549145,48.34059069617007 137.7180701011954,48.27679017452087 137.6538239344094,48.21247678330016 zM134.84240360893187,50.59595314784525 C134.06148603970666,49.48205255370067 136.0912553698086,48.259477238620605 136.82446776013296,49.30405962005645 C137.78089322486585,50.413673712249306 135.85991946861753,51.92549009374113 134.97533199994172,50.81697198645338 L134.84240360893187,50.59595314784525 zM132.32765831501376,53.56024108521649 C131.48395387799235,52.78841090012895 132.64286765228007,51.57279293649776 133.56130753407803,51.77954886473623 C134.9592714024086,52.140198144014335 134.07831858525628,54.38219350757538 132.79607516300825,53.95671570151245 C132.5973929650545,53.88845721783264 132.43617819314744,53.73679435846833 132.32765831501376,53.56024108521649 z" style="color: rgb(0, 0, 0);" class="" transform="rotate(-42.24083709716797 131.13621520996094,44.73210906982423) " id="svg_2"/><path fill="#ffffff" stroke="#000000" stroke-dashoffset="" fill-rule="nonzero" marker-start="" marker-mid="" marker-end="" d="M41.409670907917594,57.176154697781655 C40.74341221043961,56.34098680747324 42.08825333786048,54.927702500573254 42.692808114489154,55.89041335818337 C43.20883043721548,56.72482741619964 42.06181027669164,57.785712623004905 41.409670907917594,57.176154697781655 zM43.19370454118009,59.07689211231646 C42.64925650900543,58.157386342949934 44.1390097453788,57.174970273637115 44.61027340857421,58.09348022520822 C45.169659251307245,59.05395627551851 43.65803746124963,60.15088664654501 43.19370454118009,59.07689211231646 zM45.22470163928758,61.376625663952645 C44.54451324873705,60.84812102043631 45.22048108386722,59.62903185956662 45.924790403356965,59.73775808154699 C46.903117009940864,59.909153211072685 46.64164822778962,61.78049413172218 45.68746321887809,61.68875315693549 C45.502237261575246,61.66409554582942 45.33721499145799,61.54336257253209 45.22470163928758,61.376625663952645 zM46.923558387563176,63.40719363914221 C46.354731583997726,62.57705999627496 47.666421612729565,61.48677888868414 48.21783294128535,62.2772334330641 C48.81759412185204,63.15652275377907 47.47907142632074,64.31714276041842 46.923558387563176,63.40719363914221 zM43.6246290368262,63.45271419651881 C42.992271196351844,62.7656277931387 43.92046888967239,61.6554540536993 44.61879874450411,61.94523999781051 C45.63347648647133,62.318043576542046 44.879096126172875,64.11045748516773 43.97355343185371,63.70325044779011 C43.848986074194045,63.635521789432275 43.737434851577845,63.542354998098375 43.6246290368262,63.45271419651881 zM40.934924563095215,63.45271419651881 C40.1916949846247,62.65598700829736 41.549680393238155,61.34717579091194 42.18576687327092,62.18062072070967 C42.8311299977032,63.04935698243614 41.62004968068859,64.28198665568334 40.934924563095215,63.45271419651881 zM38.278087509683715,63.40719363914221 C37.70890985436327,62.57730257487978 39.021316571436344,61.48640167598687 39.572177078239015,62.27755667350407 C40.170235671867424,63.158245121188656 38.8354447162051,64.31674004434709 38.278087509683715,63.40719363914221 zM35.74763562906024,63.45271419651881 C35.004406567307846,62.65598700829736 36.362392492639145,61.34717579091194 36.9984794893901,62.18062072070967 C37.64384106366828,63.04935698243614 36.43276126337153,64.28198665568334 35.74763562906024,63.45271419651881 zM33.09102179797216,63.40789409228023 C32.43884677563288,62.428384814519575 34.2026756882733,61.35942393462923 34.49674474736034,62.58820437768255 C34.71415967379842,63.41053102254807 33.53671048681315,64.12660883133657 33.09102179797216,63.40789409228023 zM45.11698446677164,65.58517171010853 C44.483254739098314,64.83043790330537 45.61042309762804,63.511935403736885 46.28671956562422,64.19888717302582 C47.121903823578215,64.88322632921653 46.015269851972626,66.46882151470375 45.2484944520787,65.73705023427779 C45.20524874385406,65.68576947295115 45.16093497881567,65.63567194956492 45.11698446677164,65.58517171010853 zM43.19370454118009,67.456727926684 C42.65948236500034,66.58206954423501 44.04803838090074,65.62207746493176 44.54962566001608,66.44230571589434 C45.2039119935023,67.31359824605529 43.889782537476165,68.50070854812941 43.28464025209232,67.63027660857175 L43.19370454118009,67.456727926684 zM41.473378662499165,69.78434971451979 C40.89620427411232,69.1782922756759 41.68901194409335,68.22376325635881 42.317312512143296,68.38611239837866 C43.27365326997923,68.66930186510753 42.67099743325918,70.42976419761607 41.7938205090607,70.0956699960552 C41.65790291629308,70.04207198628872 41.54761662017869,69.92298309097215 41.473378662499165,69.78434971451979 z" style="color: rgb(0, 0, 0);" class="" id="svg_24" transform="rotate(-1.2182902097702026 73.04756927490149,-49.97768783569372) "/><image id="svg_3" x="13.505494117736816" y="6" width="0" height="1" style="color: rgb(0, 0, 0);" class="" xlink:href="logo/vector_paint_icon256.png"/></g></svg>